    0.0000  -41.1621
    0.0408  -41.1616
    0.0816  -41.1603
    0.1225  -41.1585
    0.1633  -41.1566
    0.2041  -41.1551
    0.2449  -41.1546
    0.2858  -41.1552
    0.3266  -41.1572
    0.3674  -41.1604
    0.4082  -41.1644
    0.4491  -41.1687
    0.4899  -41.1728
    0.5307  -41.1763
    0.5715  -41.1785
    0.6124  -41.1793
    0.6595  -41.1791
    0.7067  -41.1783
    0.7538  -41.1772
    0.8009  -41.1758
    0.8481  -41.1743
    0.8952  -41.1729
    0.9424  -41.1717
    0.9895  -41.1709
    1.0366  -41.1704
    1.0838  -41.1702
    1.1309  -41.1704
    1.1781  -41.1706
    1.2252  -41.1709
    1.2723  -41.1711
    1.3195  -41.1712
    1.3567  -41.1705
    1.3940  -41.1686
    1.4313  -41.1663
    1.4686  -41.1641
    1.5058  -41.1622
    1.5431  -41.1604
    1.5804  -41.1587
    1.6176  -41.1569
    1.6549  -41.1550
    1.6922  -41.1526
    1.7294  -41.1498
    1.7667  -41.1464
    1.8040  -41.1426
    1.8412  -41.1393
    1.8785  -41.1397
    1.9285  -41.1302
    1.9785  -41.1217
    2.0285  -41.1235
    2.0785  -41.1353
    2.1285  -41.1486
    2.1785  -41.1601
    2.2285  -41.1675
    2.2785  -41.1706
    2.3285  -41.1713
    2.3785  -41.1715
    2.4285  -41.1725
    2.4785  -41.1744
    2.5285  -41.1767
    2.5785  -41.1786
    2.6285  -41.1793
 
    0.0000  -41.1621
    0.0408  -41.1616
    0.0816  -41.1603
    0.1225  -41.1585
    0.1633  -41.1566
    0.2041  -41.1551
    0.2449  -41.1546
    0.2858  -41.1552
    0.3266  -41.1572
    0.3674  -41.1604
    0.4082  -41.1644
    0.4491  -41.1687
    0.4899  -41.1728
    0.5307  -41.1763
    0.5715  -41.1785
    0.6124  -41.1793
    0.6595  -41.1775
    0.7067  -41.1723
    0.7538  -41.1646
    0.8009  -41.1556
    0.8481  -41.1466
    0.8952  -41.1390
    0.9424  -41.1336
    0.9895  -41.1306
    1.0366  -41.1298
    1.0838  -41.1308
    1.1309  -41.1327
    1.1781  -41.1348
    1.2252  -41.1367
    1.2723  -41.1379
    1.3195  -41.1383
    1.3567  -41.1368
    1.3940  -41.1321
    1.4313  -41.1244
    1.4686  -41.1145
    1.5058  -41.1034
    1.5431  -41.0924
    1.5804  -41.0827
    1.6176  -41.0753
    1.6549  -41.0715
    1.6922  -41.0718
    1.7294  -41.0766
    1.7667  -41.0851
    1.8040  -41.0958
    1.8412  -41.1057
    1.8785  -41.1103
    1.9285  -41.1109
    1.9785  -41.1153
    2.0285  -41.1153
    2.0785  -41.1115
    2.1285  -41.1107
    2.1785  -41.1131
    2.2285  -41.1183
    2.2785  -41.1260
    2.3285  -41.1355
    2.3785  -41.1459
    2.4285  -41.1563
    2.4785  -41.1656
    2.5285  -41.1730
    2.5785  -41.1777
    2.6285  -41.1793
 
    0.0000  -41.0206
    0.0408  -41.0207
    0.0816  -41.0210
    0.1225  -41.0214
    0.1633  -41.0219
    0.2041  -41.0225
    0.2449  -41.0230
    0.2858  -41.0235
    0.3266  -41.0240
    0.3674  -41.0245
    0.4082  -41.0250
    0.4491  -41.0255
    0.4899  -41.0259
    0.5307  -41.0263
    0.5715  -41.0265
    0.6124  -41.0266
    0.6595  -41.0257
    0.7067  -41.0230
    0.7538  -41.0192
    0.8009  -41.0150
    0.8481  -41.0111
    0.8952  -41.0086
    0.9424  -41.0081
    0.9895  -41.0100
    1.0366  -41.0145
    1.0838  -41.0210
    1.1309  -41.0287
    1.1781  -41.0366
    1.2252  -41.0434
    1.2723  -41.0479
    1.3195  -41.0495
    1.3567  -41.0490
    1.3940  -41.0475
    1.4313  -41.0453
    1.4686  -41.0427
    1.5058  -41.0400
    1.5431  -41.0375
    1.5804  -41.0355
    1.6176  -41.0342
    1.6549  -41.0336
    1.6922  -41.0340
    1.7294  -41.0353
    1.7667  -41.0372
    1.8040  -41.0392
    1.8412  -41.0410
    1.8785  -41.0420
    1.9285  -41.0404
    1.9785  -41.0391
    2.0285  -41.0383
    2.0785  -41.0378
    2.1285  -41.0374
    2.1785  -41.0371
    2.2285  -41.0366
    2.2785  -41.0357
    2.3285  -41.0344
    2.3785  -41.0328
    2.4285  -41.0311
    2.4785  -41.0293
    2.5285  -41.0279
    2.5785  -41.0269
    2.6285  -41.0266
 
    0.0000  -41.0206
    0.0408  -41.0207
    0.0816  -41.0210
    0.1225  -41.0214
    0.1633  -41.0219
    0.2041  -41.0225
    0.2449  -41.0230
    0.2858  -41.0235
    0.3266  -41.0240
    0.3674  -41.0245
    0.4082  -41.0250
    0.4491  -41.0255
    0.4899  -41.0259
    0.5307  -41.0263
    0.5715  -41.0265
    0.6124  -41.0266
    0.6595  -41.0257
    0.7067  -41.0230
    0.7538  -41.0192
    0.8009  -41.0150
    0.8481  -41.0111
    0.8952  -41.0086
    0.9424  -41.0081
    0.9895  -41.0100
    1.0366  -41.0145
    1.0838  -41.0210
    1.1309  -41.0287
    1.1781  -41.0366
    1.2252  -41.0434
    1.2723  -41.0479
    1.3195  -41.0495
    1.3567  -41.0470
    1.3940  -41.0394
    1.4313  -41.0275
    1.4686  -41.0124
    1.5058  -40.9956
    1.5431  -40.9790
    1.5804  -40.9642
    1.6176  -40.9521
    1.6549  -40.9429
    1.6922  -40.9363
    1.7294  -40.9317
    1.7667  -40.9289
    1.8040  -40.9294
    1.8412  -40.9355
    1.8785  -40.9449
    1.9285  -40.9297
    1.9785  -40.9460
    2.0285  -40.9685
    2.0785  -40.9899
    2.1285  -41.0058
    2.1785  -41.0156
    2.2285  -41.0201
    2.2785  -41.0211
    2.3285  -41.0202
    2.3785  -41.0189
    2.4285  -41.0188
    2.4785  -41.0203
    2.5285  -41.0231
    2.5785  -41.0256
    2.6285  -41.0266
 
    0.0000  -40.9280
    0.0408  -40.9275
    0.0816  -40.9261
    0.1225  -40.9246
    0.1633  -40.9238
    0.2041  -40.9247
    0.2449  -40.9282
    0.2858  -40.9351
    0.3266  -40.9453
    0.3674  -40.9584
    0.4082  -40.9736
    0.4491  -40.9894
    0.4899  -41.0041
    0.5307  -41.0160
    0.5715  -41.0239
    0.6124  -41.0266
    0.6595  -41.0246
    0.7067  -41.0188
    0.7538  -41.0099
    0.8009  -40.9985
    0.8481  -40.9858
    0.8952  -40.9729
    0.9424  -40.9609
    0.9895  -40.9508
    1.0366  -40.9434
    1.0838  -40.9389
    1.1309  -40.9370
    1.1781  -40.9371
    1.2252  -40.9383
    1.2723  -40.9394
    1.3195  -40.9399
    1.3567  -40.9387
    1.3940  -40.9350
    1.4313  -40.9294
    1.4686  -40.9224
    1.5058  -40.9148
    1.5431  -40.9076
    1.5804  -40.9017
    1.6176  -40.8978
    1.6549  -40.8966
    1.6922  -40.8981
    1.7294  -40.9023
    1.7667  -40.9082
    1.8040  -40.9136
    1.8412  -40.9153
    1.8785  -40.9148
    1.9285  -40.9090
    1.9785  -40.8847
    2.0285  -40.8655
    2.0785  -40.8548
    2.1285  -40.8534
    2.1785  -40.8610
    2.2285  -40.8765
    2.2785  -40.8977
    2.3285  -40.9227
    2.3785  -40.9487
    2.4285  -40.9737
    2.4785  -40.9955
    2.5285  -41.0123
    2.5785  -41.0230
    2.6285  -41.0266
 
    0.0000  -19.1577
    0.0408  -19.1578
    0.0816  -19.1581
    0.1225  -19.1586
    0.1633  -19.1592
    0.2041  -19.1599
    0.2449  -19.1605
    0.2858  -19.1610
    0.3266  -19.1614
    0.3674  -19.1617
    0.4082  -19.1618
    0.4491  -19.1618
    0.4899  -19.1617
    0.5307  -19.1616
    0.5715  -19.1615
    0.6124  -19.1615
    0.6595  -19.1620
    0.7067  -19.1633
    0.7538  -19.1653
    0.8009  -19.1678
    0.8481  -19.1705
    0.8952  -19.1730
    0.9424  -19.1751
    0.9895  -19.1767
    1.0366  -19.1777
    1.0838  -19.1780
    1.1309  -19.1779
    1.1781  -19.1774
    1.2252  -19.1767
    1.2723  -19.1760
    1.3195  -19.1758
    1.3567  -19.1756
    1.3940  -19.1751
    1.4313  -19.1742
    1.4686  -19.1730
    1.5058  -19.1716
    1.5431  -19.1700
    1.5804  -19.1682
    1.6176  -19.1665
    1.6549  -19.1649
    1.6922  -19.1639
    1.7294  -19.1639
    1.7667  -19.1646
    1.8040  -19.1657
    1.8412  -19.1668
    1.8785  -19.1678
    1.9285  -19.1651
    1.9785  -19.1625
    2.0285  -19.1602
    2.0785  -19.1616
    2.1285  -19.1634
    2.1785  -19.1648
    2.2285  -19.1658
    2.2785  -19.1663
    2.3285  -19.1662
    2.3785  -19.1657
    2.4285  -19.1648
    2.4785  -19.1636
    2.5285  -19.1626
    2.5785  -19.1618
    2.6285  -19.1615
 
    0.0000  -19.1577
    0.0408  -19.1578
    0.0816  -19.1581
    0.1225  -19.1586
    0.1633  -19.1592
    0.2041  -19.1599
    0.2449  -19.1605
    0.2858  -19.1610
    0.3266  -19.1614
    0.3674  -19.1617
    0.4082  -19.1618
    0.4491  -19.1618
    0.4899  -19.1617
    0.5307  -19.1616
    0.5715  -19.1615
    0.6124  -19.1615
    0.6595  -19.1611
    0.7067  -19.1600
    0.7538  -19.1583
    0.8009  -19.1562
    0.8481  -19.1539
    0.8952  -19.1517
    0.9424  -19.1498
    0.9895  -19.1482
    1.0366  -19.1472
    1.0838  -19.1466
    1.1309  -19.1463
    1.1781  -19.1464
    1.2252  -19.1492
    1.2723  -19.1541
    1.3195  -19.1558
    1.3567  -19.1549
    1.3940  -19.1524
    1.4313  -19.1483
    1.4686  -19.1491
    1.5058  -19.1504
    1.5431  -19.1518
    1.5804  -19.1532
    1.6176  -19.1547
    1.6549  -19.1561
    1.6922  -19.1569
    1.7294  -19.1569
    1.7667  -19.1561
    1.8040  -19.1551
    1.8412  -19.1541
    1.8785  -19.1533
    1.9285  -19.1554
    1.9785  -19.1576
    2.0285  -19.1597
    2.0785  -19.1583
    2.1285  -19.1570
    2.1785  -19.1563
    2.2285  -19.1561
    2.2785  -19.1565
    2.3285  -19.1571
    2.3785  -19.1580
    2.4285  -19.1590
    2.4785  -19.1599
    2.5285  -19.1608
    2.5785  -19.1613
    2.6285  -19.1615
 
    0.0000  -19.1088
    0.0408  -19.1077
    0.0816  -19.1046
    0.1225  -19.0996
    0.1633  -19.0931
    0.2041  -19.0854
    0.2449  -19.0771
    0.2858  -19.0685
    0.3266  -19.0601
    0.3674  -19.0521
    0.4082  -19.0448
    0.4491  -19.0386
    0.4899  -19.0336
    0.5307  -19.0299
    0.5715  -19.0277
    0.6124  -19.0269
    0.6595  -19.0281
    0.7067  -19.0315
    0.7538  -19.0372
    0.8009  -19.0451
    0.8481  -19.0550
    0.8952  -19.0667
    0.9424  -19.0796
    0.9895  -19.0932
    1.0366  -19.1068
    1.0838  -19.1199
    1.1309  -19.1317
    1.1781  -19.1416
    1.2252  -19.1465
    1.2723  -19.1467
    1.3195  -19.1468
    1.3567  -19.1469
    1.3940  -19.1474
    1.4313  -19.1481
    1.4686  -19.1427
    1.5058  -19.1357
    1.5431  -19.1275
    1.5804  -19.1183
    1.6176  -19.1086
    1.6549  -19.0988
    1.6922  -19.0920
    1.7294  -19.0961
    1.7667  -19.1037
    1.8040  -19.1108
    1.8412  -19.1169
    1.8785  -19.1217
    1.9285  -19.1088
    1.9785  -19.0952
    2.0285  -19.0826
    2.0785  -19.0777
    2.1285  -19.0775
    2.1785  -19.0756
    2.2285  -19.0715
    2.2785  -19.0657
    2.3285  -19.0586
    2.3785  -19.0510
    2.4285  -19.0435
    2.4785  -19.0368
    2.5285  -19.0315
    2.5785  -19.0281
    2.6285  -19.0269
 
    0.0000  -19.0252
    0.0408  -19.0251
    0.0816  -19.0249
    0.1225  -19.0247
    0.1633  -19.0244
    0.2041  -19.0242
    0.2449  -19.0241
    0.2858  -19.0241
    0.3266  -19.0243
    0.3674  -19.0246
    0.4082  -19.0251
    0.4491  -19.0256
    0.4899  -19.0261
    0.5307  -19.0265
    0.5715  -19.0268
    0.6124  -19.0269
    0.6595  -19.0267
    0.7067  -19.0261
    0.7538  -19.0251
    0.8009  -19.0238
    0.8481  -19.0223
    0.8952  -19.0206
    0.9424  -19.0188
    0.9895  -19.0170
    1.0366  -19.0153
    1.0838  -19.0138
    1.1309  -19.0125
    1.1781  -19.0115
    1.2252  -19.0108
    1.2723  -19.0104
    1.3195  -19.0102
    1.3567  -19.0113
    1.3940  -19.0144
    1.4313  -19.0194
    1.4686  -19.0260
    1.5058  -19.0341
    1.5431  -19.0433
    1.5804  -19.0531
    1.6176  -19.0632
    1.6549  -19.0728
    1.6922  -19.0790
    1.7294  -19.0740
    1.7667  -19.0652
    1.8040  -19.0570
    1.8412  -19.0501
    1.8785  -19.0454
    1.9285  -19.0554
    1.9785  -19.0638
    2.0285  -19.0689
    2.0785  -19.0644
    2.1285  -19.0537
    2.1785  -19.0438
    2.2285  -19.0360
    2.2785  -19.0304
    2.3285  -19.0269
    2.3785  -19.0260
    2.4285  -19.0260
    2.4785  -19.0262
    2.5285  -19.0265
    2.5785  -19.0268
    2.6285  -19.0269
 
    0.0000  -19.0252
    0.0408  -19.0251
    0.0816  -19.0249
    0.1225  -19.0247
    0.1633  -19.0244
    0.2041  -19.0242
    0.2449  -19.0241
    0.2858  -19.0241
    0.3266  -19.0243
    0.3674  -19.0246
    0.4082  -19.0251
    0.4491  -19.0256
    0.4899  -19.0261
    0.5307  -19.0265
    0.5715  -19.0268
    0.6124  -19.0269
    0.6595  -19.0267
    0.7067  -19.0261
    0.7538  -19.0251
    0.8009  -19.0238
    0.8481  -19.0223
    0.8952  -19.0206
    0.9424  -19.0188
    0.9895  -19.0170
    1.0366  -19.0153
    1.0838  -19.0138
    1.1309  -19.0125
    1.1781  -19.0115
    1.2252  -19.0108
    1.2723  -19.0104
    1.3195  -19.0102
    1.3567  -19.0103
    1.3940  -19.0106
    1.4313  -19.0109
    1.4686  -19.0115
    1.5058  -19.0121
    1.5431  -19.0128
    1.5804  -19.0136
    1.6176  -19.0145
    1.6549  -19.0153
    1.6922  -19.0162
    1.7294  -19.0171
    1.7667  -19.0180
    1.8040  -19.0186
    1.8412  -19.0189
    1.8785  -19.0185
    1.9285  -19.0211
    1.9785  -19.0234
    2.0285  -19.0253
    2.0785  -19.0266
    2.1285  -19.0273
    2.1785  -19.0274
    2.2285  -19.0272
    2.2785  -19.0267
    2.3285  -19.0263
    2.3785  -19.0253
    2.4285  -19.0250
    2.4785  -19.0254
    2.5285  -19.0261
    2.5785  -19.0267
    2.6285  -19.0269
 
    0.0000   -7.6808
    0.0408   -7.7214
    0.0816   -7.8329
    0.1225   -7.9925
    0.1633   -8.1760
    0.2041   -8.3653
    0.2449   -8.5484
    0.2858   -8.7177
    0.3266   -8.8691
    0.3674   -9.0003
    0.4082   -9.1102
    0.4491   -9.1989
    0.4899   -9.2667
    0.5307   -9.3144
    0.5715   -9.3427
    0.6124   -9.3521
    0.6595   -9.3396
    0.7067   -9.3018
    0.7538   -9.2378
    0.8009   -9.1463
    0.8481   -9.0260
    0.8952   -8.8759
    0.9424   -8.6954
    0.9895   -8.4850
    1.0366   -8.2468
    1.0838   -7.9847
    1.1309   -7.7063
    1.1781   -7.4254
    1.2252   -7.1676
    1.2723   -6.9754
    1.3195   -6.9021
    1.3567   -6.9099
    1.3940   -6.9322
    1.4313   -6.9656
    1.4686   -7.0054
    1.5058   -7.0467
    1.5431   -7.0853
    1.5804   -7.1176
    1.6176   -7.1414
    1.6549   -7.1554
    1.6922   -7.1593
    1.7294   -7.1537
    1.7667   -7.1401
    1.8040   -7.1203
    1.8412   -7.0964
    1.8785   -7.0708
    1.9285   -7.1624
    1.9785   -7.2903
    2.0285   -7.4610
    2.0785   -7.6717
    2.1285   -7.9098
    2.1785   -8.1580
    2.2285   -8.3996
    2.2785   -8.6226
    2.3285   -8.8193
    2.3785   -8.9857
    2.4285   -9.1204
    2.4785   -9.2233
    2.5285   -9.2954
    2.5785   -9.3380
    2.6285   -9.3521
 
    0.0000   -3.3152
    0.0408   -3.2216
    0.0816   -2.9529
    0.1225   -2.5384
    0.1633   -2.0122
    0.2041   -1.4065
    0.2449   -0.7505
    0.2858   -0.0714
    0.3266    0.6048
    0.3674    1.2527
    0.4082    1.8483
    0.4491    2.3696
    0.4899    2.7971
    0.5307    3.1145
    0.5715    3.3100
    0.6124    3.3760
    0.6595    3.3125
    0.7067    3.1240
    0.7538    2.8171
    0.8009    2.4020
    0.8481    1.8926
    0.8952    1.3060
    0.9424    0.6614
    0.9895   -0.0201
    1.0366   -0.7160
    1.0838   -1.4029
    1.1309   -2.0555
    1.1781   -2.6444
    1.2252   -3.1317
    1.2723   -3.4654
    1.3195   -3.5864
    1.3567   -3.5732
    1.3940   -3.5355
    1.4313   -3.4795
    1.4686   -3.4136
    1.5058   -3.3469
    1.5431   -3.2877
    1.5804   -3.2417
    1.6176   -3.2122
    1.6549   -3.1996
    1.6922   -3.2022
    1.7294   -3.2171
    1.7667   -3.2411
    1.8040   -3.2707
    1.8412   -3.3028
    1.8785   -3.3346
    1.9285   -3.2297
    1.9785   -3.0814
    2.0285   -2.8563
    2.0785   -2.5242
    2.1285   -2.0717
    2.1785   -1.5045
    2.2285   -0.8440
    2.2785   -0.1219
    2.3285    0.6235
    2.3785    1.3504
    2.4285    2.0168
    2.4785    2.5828
    2.5285    3.0141
    2.5785    3.2841
    2.6285    3.3760
 
    0.0000    2.2476
    0.0408    2.2593
    0.0816    2.2940
    0.1225    2.3503
    0.1633    2.4261
    0.2041    2.5186
    0.2449    2.6241
    0.2858    2.7383
    0.3266    2.8563
    0.3674    2.9729
    0.4082    3.0829
    0.4491    3.1813
    0.4899    3.2632
    0.5307    3.3248
    0.5715    3.3630
    0.6124    3.3760
    0.6595    3.3465
    0.7067    3.2593
    0.7538    3.1185
    0.8009    2.9306
    0.8481    2.7041
    0.8952    2.4496
    0.9424    2.1785
    0.9895    1.9030
    1.0366    1.6352
    1.0838    1.3868
    1.1309    1.1683
    1.1781    0.9886
    1.2252    0.8549
    1.2723    0.7727
    1.3195    0.7449
    1.3567    0.7381
    1.3940    0.7185
    1.4313    0.6876
    1.4686    0.6479
    1.5058    0.6019
    1.5431    0.5522
    1.5804    0.5012
    1.6176    0.4506
    1.6549    0.4023
    1.6922    0.3582
    1.7294    0.3203
    1.7667    0.2906
    1.8040    0.2715
    1.8412    0.2653
    1.8785    0.2741
    1.9285    0.2689
    1.9785    0.3617
    2.0285    0.5469
    2.0785    0.8024
    2.1285    1.1018
    2.1785    1.4220
    2.2285    1.7459
    2.2785    2.0620
    2.3285    2.3621
    2.3785    2.6389
    2.4285    2.8846
    2.4785    3.0899
    2.5285    3.2455
    2.5785    3.3428
    2.6285    3.3760
 
    0.0000    2.2476
    0.0408    2.2593
    0.0816    2.2940
    0.1225    2.3503
    0.1633    2.4261
    0.2041    2.5186
    0.2449    2.6241
    0.2858    2.7383
    0.3266    2.8563
    0.3674    2.9729
    0.4082    3.0829
    0.4491    3.1813
    0.4899    3.2632
    0.5307    3.3248
    0.5715    3.3630
    0.6124    3.3760
    0.6595    3.3465
    0.7067    3.2593
    0.7538    3.1185
    0.8009    2.9306
    0.8481    2.7041
    0.8952    2.4496
    0.9424    2.1785
    0.9895    1.9030
    1.0366    1.6352
    1.0838    1.3868
    1.1309    1.1683
    1.1781    0.9886
    1.2252    0.8549
    1.2723    0.7727
    1.3195    0.7449
    1.3567    0.7477
    1.3940    0.7564
    1.4313    0.7724
    1.4686    0.7973
    1.5058    0.8329
    1.5431    0.8801
    1.5804    0.9382
    1.6176    1.0046
    1.6549    1.0743
    1.6922    1.1409
    1.7294    1.1971
    1.7667    1.2358
    1.8040    1.2512
    1.8412    1.2390
    1.8785    1.1977
    1.9285    1.3763
    1.9785    1.5723
    2.0285    1.7794
    2.0785    1.9912
    2.1285    2.2016
    2.1785    2.4051
    2.2285    2.5966
    2.2785    2.7722
    2.3285    2.9286
    2.3785    3.0634
    2.4285    3.1752
    2.4785    3.2628
    2.5285    3.3256
    2.5785    3.3634
    2.6285    3.3760
 
